ov_7670_blob_detection/xsim.log
#-----------------------------------------------------------
# xsim v2024.1 (64-bit)
# SW Build 5076996 on Wed May 22 18:36:09 MDT 2024
# IP Build 5075265 on Wed May 22 21:45:21 MDT 2024
# SharedData Build 5076995 on Wed May 22 18:29:18 MDT 2024
# Start of session at: Sat Mar 14 21:08:55 2026
# Process ID: 172
# Current directory: /workspace/ov_7670_blob_detection
# Command line: xsim -mode tcl -source {xsim.dir/tb_blob_bg_model/xsim_script.tcl}
# Log file: /workspace/ov_7670_blob_detection/xsim.log
# Journal file: /workspace/ov_7670_blob_detection/xsim.jou
# Running On        :a70609858407
# Platform          :unknown
# Operating System  :unknown
# Processor Detail  :VirtualApple @ 2.50GHz
# CPU Frequency     :2502.057 MHz
# CPU Physical cores:16
# CPU Logical cores :16
# Host memory       :67305 MB
# Swap memory       :1073 MB
# Total Virtual     :68379 MB
# Available Virtual :64620 MB
#-----------------------------------------------------------
source xsim.dir/tb_blob_bg_model/xsim_script.tcl
# xsim {tb_blob_bg_model} -autoloadwcfg -runall
Time resolution is 1 ps
run -all
SIMDBG_V frame=000 gain_q8=010 illum=75 fg=19200 bg0=000
SIMDBG_V frame=001 gain_q8=010 illum=75 fg=09320 bg0=000
SIMDBG_V frame=002 gain_q8=010 illum=75 fg=09217 bg0=000
SIMDBG_V frame=003 gain_q8=010 illum=73 fg=09321 bg0=000
SIMDBG_V frame=004 gain_q8=010 illum=73 fg=08851 bg0=000
SIMDBG_V frame=005 gain_q8=010 illum=71 fg=09093 bg0=000
SIMDBG_V frame=006 gain_q8=010 illum=71 fg=08422 bg0=000
SIMDBG_V frame=007 gain_q8=010 illum=70 fg=08832 bg0=000
SIMDBG_V frame=008 gain_q8=010 illum=70 fg=08389 bg0=000
SIMDBG_V frame=009 gain_q8=010 illum=68 fg=09059 bg0=000
SIMDBG_V frame=010 gain_q8=010 illum=68 fg=07795 bg0=000
SIMDBG_V frame=011 gain_q8=010 illum=67 fg=08489 bg0=000
SIMDBG_V frame=012 gain_q8=010 illum=67 fg=07603 bg0=000
SIMDBG_V frame=013 gain_q8=010 illum=65 fg=08462 bg0=000
SIMDBG_V frame=014 gain_q8=010 illum=65 fg=06648 bg0=000
SIMDBG_V frame=015 gain_q8=010 illum=64 fg=07479 bg0=000
SIMDBG_V frame=016 gain_q8=010 illum=64 fg=06417 bg0=000
SIMDBG_V frame=017 gain_q8=010 illum=63 fg=07181 bg0=000
SIMDBG_V frame=018 gain_q8=010 illum=63 fg=05998 bg0=000
SIMDBG_V frame=019 gain_q8=010 illum=62 fg=06758 bg0=000
SIMDBG_V frame=020 gain_q8=010 illum=61 fg=06444 bg0=000
SIMDBG_V frame=021 gain_q8=010 illum=61 fg=05176 bg0=000
SIMDBG_V frame=022 gain_q8=010 illum=60 fg=05964 bg0=000
SIMDBG_V frame=023 gain_q8=010 illum=60 fg=04483 bg0=000
SIMDBG_V frame=024 gain_q8=010 illum=59 fg=05573 bg0=000
SIMDBG_V frame=025 gain_q8=010 illum=59 fg=04023 bg0=000
SIMDBG_V frame=026 gain_q8=010 illum=58 fg=05014 bg0=000
SIMDBG_V frame=027 gain_q8=010 illum=57 fg=04659 bg0=001
SIMDBG_V frame=028 gain_q8=010 illum=58 fg=03286 bg0=001
SIMDBG_V frame=029 gain_q8=010 illum=56 fg=05636 bg0=001
$finish called at time : 11521110 ns : File "/workspace/ov_7670_blob_detection/tb_blob_bg_model.v" Line 126
exit
INFO: xsimkernel Simulation Memory Usage: 1282580 KB (Peak: 1347556 KB), Simulation CPU Usage: 540 ms
INFO: [Common 17-206] Exiting xsim at Sat Mar 14 21:08:59 2026...
